<?xml version="1.0" encoding="UTF-8" standalone="no"?>
<svg
   xmlns:dc="http://purl.org/dc/elements/1.1/"
   xmlns:cc="http://creativecommons.org/ns#"
   xmlns:rdf="http://www.w3.org/1999/02/22-rdf-syntax-ns#"
   xmlns:svg="http://www.w3.org/2000/svg"
   xmlns="http://www.w3.org/2000/svg"
   version="1.1"
   id="svg2"
   viewBox="0 0 744.09448819 1052.3622047"
   height="297mm"
   width="210mm">
  <defs
     id="defs4" />
  <metadata
     id="metadata7">
    <rdf:RDF>
      <cc:Work
         rdf:about="">
        <dc:format>image/svg+xml</dc:format>
        <dc:type
           rdf:resource="http://purl.org/dc/dcmitype/StillImage" />
        <dc:title></dc:title>
      </cc:Work>
    </rdf:RDF>
  </metadata>
  <g
     id="layer1">
    <path
       id="path3336"
       d="m 349.28517,157.3616 a 150.71428,150.71428 0 0 0 -106.57423,44.28516 l -0.25391,-0.23438 c -48.65667,43.56947 -92.89666,208.26016 -93.20704,301.80078 104.51329,0.93207 255.74754,-24.45249 314.23243,-96.78906 l -0.0508,-0.0469 A 150.71428,150.71428 0 0 0 500,308.07644 150.71428,150.71428 0 0 0 349.28517,157.3616 Z m 53.58592,66.88672 c 8.43423,0 15.9575,1.8236 22.56641,5.46875 6.60891,3.5812 11.67447,8.6651 15.19922,15.25195 3.58769,6.58685 5.38281,14.06982 5.38281,22.44727 l -27.66406,0 c 0,-6.5229 -1.38485,-11.47979 -4.1543,-14.86914 -2.70651,-3.4533 -6.63953,-5.17969 -11.80078,-5.17969 -4.84654,0 -8.62357,1.47041 -11.33008,4.41211 -2.7065,2.87775 -4.06054,6.77897 -4.06054,11.70312 0,3.837 1.51198,7.32153 4.5332,10.45508 3.02122,3.0696 8.3699,6.26835 16.04883,9.59375 13.40665,4.92415 23.13139,10.96651 29.17382,18.12891 6.10538,7.1624 9.15821,16.27454 9.15821,27.33789 0,12.1505 -3.80785,21.64758 -11.42383,28.49023 -7.61598,6.84265 -17.97056,10.26367 -31.0625,10.26368 -8.87483,0 -16.9624,-1.85341 -24.26367,-5.5625 -7.30127,-3.7091 -13.02941,-9.01723 -17.18359,-15.92383 -4.09123,-6.9066 -6.13671,-15.06029 -6.13671,-24.46094 l 27.85155,0 c 0,8.0577 1.54279,13.90954 4.62695,17.55469 3.08416,3.64515 8.11891,5.46679 15.10547,5.46679 9.69307,0 14.54102,-5.21091 14.54102,-15.63476 0,-5.69155 -1.44842,-9.97772 -4.34375,-12.85547 -2.8324,-2.9417 -8.02509,-5.97778 -15.57813,-9.11133 -13.7843,-5.30785 -23.69779,-11.51092 -29.74022,-18.60937 -6.04244,-7.1624 -9.0625,-15.60382 -9.0625,-25.32422 0,-11.7668 4.09097,-21.20038 12.27343,-28.29883 8.2454,-7.1624 18.6924,-10.74414 31.34374,-10.74414 z m -124.52929,1.91992 25.39649,0 43.24024,139.66602 -29.64454,0 -7.36523,-28.58594 -37.85938,0 -7.36329,28.58594 -29.36328,0 42.95899,-139.66602 z m 12.6504,37.79297 -12.83986,49.78516 25.6797,0 -12.83984,-49.78516 z"
       style="fill:#fff;fill-rule:evenodd;stroke:#000000;stroke-width:1px;stroke-linecap:butt;stroke-linejoin:miter;stroke-opacity:1" />
  </g>
</svg>
